{
  "data": [
    {
      "titulo": "Desenvolvedor Back End",
      "descricao": "Vaga para desenvolvedor full stack"
    },
    {
      "titulo": "Desenvolvedor Front End",
      "descricao": "Vaga para desenvolvedor front end"
    },
    {
      "titulo": "Desenvolvedor Back End",
      "descricao": "Vaga para desenvolvedor back end"
    },
    {
      "titulo": "Desenvolvedor Mobile",
      "descricao": "Vaga para desenvolvedor mobile"
    },
    {
      "titulo": "Desenvolvedor Web",
      "descricao": "Vaga para desenvolvedor web"
    },
    {
      "titulo": "Analista de Sistemas Pl/Sr",
      "descricao": "Vaga para analista de sistemas"
    }
  ]
}
